{
  "name": "loginJourneyWithDifferentCredentials",
  "status": "passed",
  "statusDetails": {
    "known": false,
    "muted": false,
    "flaky": false
  },
  "stage": "finished",
  "steps": [],
  "attachments": [],
  "parameters": [
    {
      "name": "arg1",
      "value": "test123"
    },
    {
      "name": "arg0",
      "value": "purwar389@gmail.com"
    }
  ],
  "start": 1659594493220,
  "stop": 1659594513921,
  "uuid": "1a1786b3-4aa1-4b21-bcbb-ea05a1d8b3d5",
  "historyId": "3981d7e42a031804f1183fd8ab34b1a7",
  "fullName": "iOS.Tests.LoginTests.loginJourneyWithDifferentCredentials",
  "labels": [
    {
      "name": "package",
      "value": "iOS.Tests.LoginTests"
    },
    {
      "name": "testClass",
      "value": "iOS.Tests.LoginTests"
    },
    {
      "name": "testMethod",
      "value": "loginJourneyWithDifferentCredentials"
    },
    {
      "name": "parentSuite",
      "value": "All Test Suite"
    },
    {
      "name": "suite",
      "value": "/Users/gauravpurwar/Documents/ListnrProject"
    },
    {
      "name": "subSuite",
      "value": "iOS.Tests.LoginTests"
    },
    {
      "name": "host",
      "value": "Gauravs-MacBook-Pro.local"
    },
    {
      "name": "thread",
      "value": "8860@Gauravs-MacBook-Pro.local.main(1)"
    },
    {
      "name": "framework",
      "value": "testng"
    },
    {
      "name": "language",
      "value": "java"
    }
  ],
  "links": []
}